%YAML 1.1
%TAG !u! tag:unity3d.com,2011:
--- !u!181963792 &2655988077585873504
Preset:
  m_ObjectHideFlags: 0
  m_CorrespondingSourceObject: {fileID: 0}
  m_PrefabInstance: {fileID: 0}
  m_PrefabAsset: {fileID: 0}
  m_Name: NewspaperThrowLeft
  m_TargetType:
    m_NativeTypeID: 114
    m_ManagedTypePPtr: {fileID: 11500000, guid: 22fd7343af537d146a9ad91892aefb66, type: 3}
    m_ManagedTypeFallback: 
  m_Properties:
  - target: {fileID: 0}
    propertyPath: m_Enabled
    value: 1
    objectReference: {fileID: 0}
  - target: {fileID: 0}
    propertyPath: m_EditorHideFlags
    value: 0
    objectReference: {fileID: 0}
  - target: {fileID: 0}
    propertyPath: m_EditorClassIdentifier
    value: 
    objectReference: {fileID: 0}
  - target: {fileID: 0}
    propertyPath: hand
    value: 0
    objectReference: {fileID: 0}
  - target: {fileID: 0}
    propertyPath: throwAnchor
    value: 
    objectReference: {fileID: 0}
  - target: {fileID: 0}
    propertyPath: velocityDamping
    value: 0.25
    objectReference: {fileID: 0}
  - target: {fileID: 0}
    propertyPath: angularVelocityDamping
    value: 0.5
    objectReference: {fileID: 0}
  - target: {fileID: 0}
    propertyPath: velocityScale
    value: 0.1
    objectReference: {fileID: 0}
  - target: {fileID: 0}
    propertyPath: angularVelocityScale
    value: 0.1
    objectReference: {fileID: 0}
  - target: {fileID: 0}
    propertyPath: regrabRadius
    value: 0.25
    objectReference: {fileID: 0}
  - target: {fileID: 0}
    propertyPath: regrabLayer.m_Bits
    value: 0
    objectReference: {fileID: 0}
  - target: {fileID: 0}
    propertyPath: newspaperPrefabs.Array.size
    value: 1
    objectReference: {fileID: 0}
  - target: {fileID: 0}
    propertyPath: newspaperPrefabs.Array.data[0]
    value: 
    objectReference: {fileID: 6086711913295139814, guid: e0aff43044c74644183216c23c24a6a7, type: 3}
  m_ExcludedProperties: []
