%YAML 1.1
%TAG !u! tag:unity3d.com,2011:
--- !u!1045 &1
EditorBuildSettings:
  m_ObjectHideFlags: 0
  serializedVersion: 2
  m_Scenes:
  - enabled: 1
    path: Assets/_Scenes/MainMenu.unity
    guid: 2077bc55c245ec14ebdc11ef156e829f
  - enabled: 1
    path: Assets/_Scenes/RideTown.unity
    guid: 6d26326bf666f4704b635c1c51f5fb69
  - enabled: 1
    path: Assets/_Scenes/ScorePresentation.unity
    guid: 808b85ad432651d499add7f44330fd03
  m_configObjects:
    Unity.XR.Oculus.Settings: {fileID: 11400000, guid: d1607f2894009fa46a97c16743c35b1f, type: 2}
    com.unity.xr.management.loader_settings: {fileID: 11400000, guid: c8082e56b8e9bbb4e9251f0c7f3460fc, type: 2}
    com.unity.xr.openxr.settings4: {fileID: 11400000, guid: b8e1b2f460531d64ea39acf598e169e1, type: 2}
